%!PS-Adobe-3.0 EPSF-3.0
%%Title: /home/antonio/Sources/iecTango/doc/mainschema.fig
%%Creator: fig2dev Version 3.2.7a
%%CreationDate: 2020-03-31 20:32:45
%%BoundingBox: 0 0 484 354
%%Magnification: 1.0000
%%EndComments
%%BeginProlog
/$F2psDict 200 dict def
$F2psDict begin
$F2psDict /mtrx matrix put
/col-1 {0 setgray} bind def
/col0 {0.000 0.000 0.000 srgb} bind def
/col7 {1.000 1.000 1.000 srgb} bind def
/col11 {0.530 0.810 1.000 srgb} bind def
/col27 {1.000 0.500 0.500 srgb} bind def
/col28 {1.000 0.630 0.630 srgb} bind def
/col30 {1.000 0.880 0.880 srgb} bind def
/col32 {0.604 0.000 0.000 srgb} bind def
/col33 {0.604 0.000 0.000 srgb} bind def
/col34 {0.541 0.541 0.541 srgb} bind def
/col35 {0.259 0.259 0.259 srgb} bind def
/col36 {0.541 0.541 0.541 srgb} bind def
/col37 {0.259 0.259 0.259 srgb} bind def
/col38 {0.541 0.541 0.541 srgb} bind def
/col39 {0.259 0.259 0.259 srgb} bind def
/col40 {0.541 0.541 0.541 srgb} bind def
/col41 {0.259 0.259 0.259 srgb} bind def
/col42 {0.541 0.541 0.541 srgb} bind def
/col43 {0.259 0.259 0.259 srgb} bind def
/col44 {0.541 0.541 0.541 srgb} bind def
/col45 {0.541 0.541 0.541 srgb} bind def
/col46 {0.541 0.541 0.541 srgb} bind def
/col47 {0.541 0.541 0.541 srgb} bind def
/col48 {0.541 0.541 0.541 srgb} bind def
/col49 {0.541 0.541 0.541 srgb} bind def
/col50 {0.541 0.541 0.541 srgb} bind def
/col51 {0.541 0.541 0.541 srgb} bind def
/col52 {0.541 0.541 0.541 srgb} bind def
/col53 {0.541 0.541 0.541 srgb} bind def
/col54 {0.541 0.541 0.541 srgb} bind def
/col55 {0.541 0.541 0.541 srgb} bind def

end

/cp {closepath} bind def
/ef {eofill} bind def
/gr {grestore} bind def
/gs {gsave} bind def
/sa {save} bind def
/rs {restore} bind def
/l {lineto} bind def
/rl {rlineto} bind def
/m {moveto} bind def
/rm {rmoveto} bind def
/n {newpath} bind def
/s {stroke} bind def
/sh {show} bind def
/slc {setlinecap} bind def
/slj {setlinejoin} bind def
/slw {setlinewidth} bind def
/srgb {setrgbcolor} bind def
/rot {rotate} bind def
/sc {scale} bind def
/sd {setdash} bind def
/ff {findfont} bind def
/sf {setfont} bind def
/scf {scalefont} bind def
/sw {stringwidth} bind def
/tr {translate} bind def
/tnt {dup dup currentrgbcolor
  4 -2 roll dup 1 exch sub 3 -1 roll mul add
  4 -2 roll dup 1 exch sub 3 -1 roll mul add
  4 -2 roll dup 1 exch sub 3 -1 roll mul add srgb}
  bind def
/shd {dup dup currentrgbcolor 4 -2 roll mul 4 -2 roll mul
  4 -2 roll mul srgb} bind def
/reencdict 12 dict def /ReEncode { reencdict begin
/newcodesandnames exch def /newfontname exch def /basefontname exch def
/basefontdict basefontname findfont def /newfont basefontdict maxlength dict def
basefontdict { exch dup /FID ne { dup /Encoding eq
{ exch dup length array copy newfont 3 1 roll put }
{ exch newfont 3 1 roll put } ifelse } { pop pop } ifelse } forall
newfont /FontName newfontname put newcodesandnames aload pop
128 1 255 { newfont /Encoding get exch /.notdef put } for
newcodesandnames length 2 idiv { newfont /Encoding get 3 1 roll put } repeat
newfontname newfont definefont pop end } def
/isovec [
8#055 /minus 8#200 /grave 8#201 /acute 8#202 /circumflex 8#203 /tilde
8#204 /macron 8#205 /breve 8#206 /dotaccent 8#207 /dieresis
8#210 /ring 8#211 /cedilla 8#212 /hungarumlaut 8#213 /ogonek 8#214 /caron
8#220 /dotlessi 8#230 /oe 8#231 /OE
8#240 /space 8#241 /exclamdown 8#242 /cent 8#243 /sterling
8#244 /currency 8#245 /yen 8#246 /brokenbar 8#247 /section 8#250 /dieresis
8#251 /copyright 8#252 /ordfeminine 8#253 /guillemotleft 8#254 /logicalnot
8#255 /hyphen 8#256 /registered 8#257 /macron 8#260 /degree 8#261 /plusminus
8#262 /twosuperior 8#263 /threesuperior 8#264 /acute 8#265 /mu 8#266 /paragraph
8#267 /periodcentered 8#270 /cedilla 8#271 /onesuperior 8#272 /ordmasculine
8#273 /guillemotright 8#274 /onequarter 8#275 /onehalf
8#276 /threequarters 8#277 /questiondown 8#300 /Agrave 8#301 /Aacute
8#302 /Acircumflex 8#303 /Atilde 8#304 /Adieresis 8#305 /Aring
8#306 /AE 8#307 /Ccedilla 8#310 /Egrave 8#311 /Eacute
8#312 /Ecircumflex 8#313 /Edieresis 8#314 /Igrave 8#315 /Iacute
8#316 /Icircumflex 8#317 /Idieresis 8#320 /Eth 8#321 /Ntilde 8#322 /Ograve
8#323 /Oacute 8#324 /Ocircumflex 8#325 /Otilde 8#326 /Odieresis 8#327 /multiply
8#330 /Oslash 8#331 /Ugrave 8#332 /Uacute 8#333 /Ucircumflex
8#334 /Udieresis 8#335 /Yacute 8#336 /Thorn 8#337 /germandbls 8#340 /agrave
8#341 /aacute 8#342 /acircumflex 8#343 /atilde 8#344 /adieresis 8#345 /aring
8#346 /ae 8#347 /ccedilla 8#350 /egrave 8#351 /eacute
8#352 /ecircumflex 8#353 /edieresis 8#354 /igrave 8#355 /iacute
8#356 /icircumflex 8#357 /idieresis 8#360 /eth 8#361 /ntilde 8#362 /ograve
8#363 /oacute 8#364 /ocircumflex 8#365 /otilde 8#366 /odieresis 8#367 /divide
8#370 /oslash 8#371 /ugrave 8#372 /uacute 8#373 /ucircumflex
8#374 /udieresis 8#375 /yacute 8#376 /thorn 8#377 /ydieresis] def
/Times-Roman /Times-Roman-iso isovec ReEncode
/$F2psBegin {$F2psDict begin /$F2psEnteredState save def} def
/$F2psEnd {$F2psEnteredState restore end} def

/pageheader {
sa
n 0 354 m 0 0 l 484 0 l 484 354 l cp clip
-55.9 397.6 tr
1 -1 sc
$F2psBegin
10 setmiterlimit
0 slj 0 slc
 0.06299 0.06299 sc
} bind def
/pagefooter {
$F2psEnd
restore
} bind def
%%EndProlog
pageheader
%
% Fig objects follow
%
% 
% here starts figure with depth 52
% Polyline
0 slj
0 slc
7.500 slw
n 900 4725 m 8550 4725 l 8550 6300 l 900 6300 l
 cp gs col11 0.20 tnt ef gr gs col0 s gr % Polyline
n 900 720 m 8550 720 l 8550 4590 l 900 4590 l
 cp gs col30 0.20 tnt ef gr gs col0 s gr % Polyline
n 1725 3240 m 1620 3240 1620 3765 105 arcto 4 {pop} repeat
  1620 3870 2685 3870 105 arcto 4 {pop} repeat
  2790 3870 2790 3345 105 arcto 4 {pop} repeat
  2790 3240 1725 3240 105 arcto 4 {pop} repeat
 cp gs col11 1.00 shd ef gr gs col0 s gr % Polyline
n 2040 4995 m 1935 4995 1935 5790 105 arcto 4 {pop} repeat
  1935 5895 3405 5895 105 arcto 4 {pop} repeat
  3510 5895 3510 5100 105 arcto 4 {pop} repeat
  3510 4995 2040 4995 105 arcto 4 {pop} repeat
 cp gs col11 1.00 shd ef gr gs col0 s gr % Polyline
n 3780 1350 m 4320 1350 l 4320 1710 l 3780 1710 l
 cp gs col27 1.00 shd ef gr gs col0 s gr % Polyline
n 3780 1710 m 4320 1710 l 4320 2070 l 3780 2070 l
 cp gs col27 1.00 shd ef gr gs col0 s gr % Polyline
n 3780 2070 m 4320 2070 l 4320 2430 l 3780 2430 l
 cp gs col27 1.00 shd ef gr gs col0 s gr % Polyline
n 3780 2430 m 4320 2430 l 4320 2790 l 3780 2790 l
 cp gs col27 1.00 shd ef gr gs col0 s gr % Polyline
n 3780 2790 m 4320 2790 l 4320 3150 l 3780 3150 l
 cp gs col27 1.00 shd ef gr gs col0 s gr % Polyline
n 3780 3600 m 4320 3600 l 4320 3960 l 3780 3960 l
 cp gs col27 1.00 shd ef gr gs col0 s gr % Polyline
n 5503 1311 m 5599 1311 l 5599 1633 l 5503 1633 l
 cp gs col30 1.00 shd ef gr gs col0 s gr % Polyline
n 5664 1311 m 5696 1311 l 5696 1633 l 5664 1633 l
 cp gs col30 1.00 shd ef gr gs col0 s gr % Polyline
n 5439 1311 m 5439 1633 l 4828 1633 l 4828 1890 l 4410 1454 l 4828 1022 l
 4828 1311 l
 cp gs col30 1.00 shd ef gr gs col0 s gr % Polyline
n 1680 3195 m 1575 3195 1575 3720 105 arcto 4 {pop} repeat
  1575 3825 2640 3825 105 arcto 4 {pop} repeat
  2745 3825 2745 3300 105 arcto 4 {pop} repeat
  2745 3195 1680 3195 105 arcto 4 {pop} repeat
 cp gs col11 1.00 shd ef gr gs col0 s gr % Polyline
n 1995 4950 m 1890 4950 1890 5745 105 arcto 4 {pop} repeat
  1890 5850 3360 5850 105 arcto 4 {pop} repeat
  3465 5850 3465 5055 105 arcto 4 {pop} repeat
  3465 4950 1995 4950 105 arcto 4 {pop} repeat
 cp gs col11 1.00 shd ef gr gs col0 s gr % Polyline
gs  clippath
6923 3143 m 6937 3143 l 6960 3286 l 6900 3286 l cp
eoclip
n 6930 3780 m
 6930 3150 l gs col0 s gr gr
% arrowhead
n 6960 3286 m 6930 3166 l 6900 3286 l 6960 3286 l  cp gs 0.00 setgray ef gr  col0 s
% Polyline
gs  clippath
6383 1793 m 6397 1793 l 6420 1936 l 6360 1936 l cp
eoclip
n 5400 2160 m 6390 2160 l
 6390 1800 l gs col0 s gr gr
% arrowhead
n 6420 1936 m 6390 1816 l 6360 1936 l 6420 1936 l  cp gs 0.00 setgray ef gr  col0 s
% Polyline
n 4860 1980 m 5400 1980 l 5400 4320 l 4860 4320 l
 cp gs col30 1.00 shd ef gr gs col0 s gr % Polyline
gs  clippath
6923 4403 m 6937 4403 l 6960 4546 l 6900 4546 l cp
eoclip
n 6930 5040 m
 6930 4410 l gs col0 s gr gr
% arrowhead
n 6960 4546 m 6930 4426 l 6900 4546 l 6960 4546 l  cp gs 0.00 setgray ef gr  col0 s
% Polyline
gs  clippath
5393 2977 m 5393 2963 l 5536 2940 l 5536 3000 l cp
eoclip
n 5850 2970 m
 5400 2970 l gs col0 s gr gr
% arrowhead
n 5536 2940 m 5416 2970 l 5536 3000 l 5536 2940 l  cp gs 0.00 setgray ef gr  col0 s
% Polyline
gs  clippath
1717 2167 m 1703 2167 l 1680 2024 l 1740 2024 l cp
eoclip
n 1710 1800 m
 1710 2160 l gs col0 s gr gr
% arrowhead
n 1680 2024 m 1710 2144 l 1740 2024 l 1680 2024 l  cp gs 0.00 setgray ef gr  col0 s
% Polyline
n 1706 2790 m 1714 2790 l gs col0 s gr
% Polyline
gs  clippath
2167 3157 m 2153 3157 l 2130 3014 l 2190 3014 l cp
eoclip
n 2160 2790 m
 2160 3150 l gs col0 s gr gr
% arrowhead
n 2130 3014 m 2160 3134 l 2190 3014 l 2130 3014 l  cp gs 0.00 setgray ef gr  col0 s
% Polyline
gs  clippath
2167 4957 m 2153 4957 l 2130 4814 l 2190 4814 l cp
eoclip
n 2160 3915 m
 2160 4950 l gs col0 s gr gr
% arrowhead
n 2130 4814 m 2160 4934 l 2190 4814 l 2130 4814 l  cp gs 0.00 setgray ef gr  col0 s
% Polyline
n 8550 720 m 7110 720 l 7110 990 l 8550 990 l
 cp gs col0 s gr % Polyline
n 6045 5040 m 5940 5040 5940 5700 105 arcto 4 {pop} repeat
  5940 5805 7770 5805 105 arcto 4 {pop} repeat
  7875 5805 7875 5145 105 arcto 4 {pop} repeat
  7875 5040 6045 5040 105 arcto 4 {pop} repeat
 cp gs col34 1.00 shd ef gr gs col0 s gr % Polyline
n 3191 4905 m 3199 4905 l gs col0 s gr
% Polyline
n 4136 4905 m 4144 4905 l gs col0 s gr
% Polyline
gs  clippath
3202 4957 m 3188 4957 l 3165 4814 l 3225 4814 l cp
eoclip
n 3195 1665 m
 3195 4950 l gs col0 s gr gr
% arrowhead
n 3165 4814 m 3195 4934 l 3225 4814 l 3165 4814 l  cp gs 0.00 setgray ef gr  col0 s
/Times-Roman-iso ff 190.50 scf sf
3862 1575 m
gs 1 -1 sc (dobj) col0 sh gr
/Times-Roman-iso ff 190.50 scf sf
3862 1935 m
gs 1 -1 sc (dobj) col0 sh gr
/Times-Roman-iso ff 190.50 scf sf
3862 2295 m
gs 1 -1 sc (dobj) col0 sh gr
/Times-Roman-iso ff 190.50 scf sf
3862 2655 m
gs 1 -1 sc (dobj) col0 sh gr
/Times-Roman-iso ff 190.50 scf sf
3862 3015 m
gs 1 -1 sc (dobj) col0 sh gr
/Times-Roman-iso ff 190.50 scf sf
3862 3825 m
gs 1 -1 sc (dobj) col0 sh gr
/Times-Roman-iso ff 190.50 scf sf
4050 3420 m
gs 1 -1 sc  90.0 rot (...) col0 sh gr
/Times-Roman-iso ff 190.50 scf sf
4770 1530 m
gs 1 -1 sc (update) col0 sh gr
/Times-Roman-iso ff 190.50 scf sf
5490 3330 m
gs 1 -1 sc (message) col0 sh gr
/Times-Roman-iso ff 190.50 scf sf
5490 3555 m
gs 1 -1 sc (events) col0 sh gr
/Times-Roman-iso ff 190.50 scf sf
7020 3420 m
gs 1 -1 sc (reporting events) col0 sh gr
/Times-Roman-iso ff 190.50 scf sf
4770 4320 m
gs 1 -1 sc  90.0 rot (asynchronous message queue) col0 sh gr
/Times-Roman-iso ff 190.50 scf sf
7200 900 m
gs 1 -1 sc (iec4tango scope) col0 sh gr
/Times-Roman-iso ff 190.50 scf sf
6930 5400 m
gs 1 -1 sc (IEC 61850) dup sw pop 2 div neg 0 rm  col0 sh gr
/Times-Roman-iso ff 190.50 scf sf
6930 5625 m
gs 1 -1 sc (IED) dup sw pop 2 div neg 0 rm  col0 sh gr
/Times-Roman-iso ff 190.50 scf sf
6975 4950 m
gs 1 -1 sc (MMS reporting) col0 sh gr
/Times-Roman-iso ff 190.50 scf sf
3735 3915 m
gs 1 -1 sc  90.0 rot (real-time model data-base) col0 sh gr
/Times-Roman-iso ff 190.50 scf sf
2115 4140 m
gs 1 -1 sc (tango) dup sw pop neg 0 rm  col0 sh gr
/Times-Roman-iso ff 190.50 scf sf
2115 4365 m
gs 1 -1 sc (protocols) dup sw pop neg 0 rm  col0 sh gr
/Times-Roman-iso ff 190.50 scf sf
3150 4545 m
gs 1 -1 sc  90.0 rot (tango event) col0 sh gr
% Polyline
n 5955 1170 m 5850 1170 5850 1695 105 arcto 4 {pop} repeat
  5850 1800 7905 1800 105 arcto 4 {pop} repeat
  8010 1800 8010 1275 105 arcto 4 {pop} repeat
  8010 1170 5955 1170 105 arcto 4 {pop} repeat
 cp gs col27 1.00 shd ef gr gs col0 s gr % Polyline
n 5955 3780 m 5850 3780 5850 4305 105 arcto 4 {pop} repeat
  5850 4410 7905 4410 105 arcto 4 {pop} repeat
  8010 4410 8010 3885 105 arcto 4 {pop} repeat
  8010 3780 5955 3780 105 arcto 4 {pop} repeat
 cp gs col27 1.00 shd ef gr gs col0 s gr % Polyline
n 5955 2520 m 5850 2520 5850 3045 105 arcto 4 {pop} repeat
  5850 3150 7905 3150 105 arcto 4 {pop} repeat
  8010 3150 8010 2625 105 arcto 4 {pop} repeat
  8010 2520 5955 2520 105 arcto 4 {pop} repeat
 cp gs col27 1.00 shd ef gr gs col0 s gr % Polyline
n 1080 1170 m 990 1170 990 1710 90 arcto 4 {pop} repeat
  990 1800 2430 1800 90 arcto 4 {pop} repeat
  2520 1800 2520 1260 90 arcto 4 {pop} repeat
  2520 1170 1080 1170 90 arcto 4 {pop} repeat
 cp gs col11 1.00 shd ef gr gs col0 s gr % Polyline
n 1350 2160 m 1260 2160 1260 2700 90 arcto 4 {pop} repeat
  1260 2790 2700 2790 90 arcto 4 {pop} repeat
  2790 2790 2790 2250 90 arcto 4 {pop} repeat
  2790 2160 1350 2160 90 arcto 4 {pop} repeat
 cp gs col11 1.00 shd ef gr gs col0 s gr % Polyline
n 1620 3150 m 1530 3150 1530 3690 90 arcto 4 {pop} repeat
  1530 3780 2610 3780 90 arcto 4 {pop} repeat
  2700 3780 2700 3240 90 arcto 4 {pop} repeat
  2700 3150 1620 3150 90 arcto 4 {pop} repeat
 cp gs col11 1.00 shd ef gr gs col0 s gr % Polyline
n 1950 4905 m 1845 4905 1845 5700 105 arcto 4 {pop} repeat
  1845 5805 3315 5805 105 arcto 4 {pop} repeat
  3420 5805 3420 5010 105 arcto 4 {pop} repeat
  3420 4905 1950 4905 105 arcto 4 {pop} repeat
 cp gs col11 1.00 shd ef gr gs col0 s gr % Polyline
n 4860 1980 m 5400 1980 l 5400 2340 l 4860 2340 l
 cp gs col28 1.00 shd ef gr gs col0 s gr % Polyline
n 4860 2340 m 5400 2340 l 5400 2700 l 4860 2700 l
 cp gs col28 1.00 shd ef gr gs col0 s gr % Polyline
n 4860 2700 m 5400 2700 l 5400 3060 l 4860 3060 l
 cp gs col28 1.00 shd ef gr gs col0 s gr /Times-Roman-iso ff 190.50 scf sf
6930 1625 m
gs 1 -1 sc (thread) dup sw pop 2 div neg 0 rm  col0 sh gr
/Times-Roman-iso ff 190.50 scf sf
6930 1450 m
gs 1 -1 sc (iec client task) dup sw pop 2 div neg 0 rm  col0 sh gr
/Times-Roman-iso ff 190.50 scf sf
6930 4235 m
gs 1 -1 sc (client) dup sw pop 2 div neg 0 rm  col0 sh gr
/Times-Roman-iso ff 190.50 scf sf
6930 4060 m
gs 1 -1 sc (libiec61850) dup sw pop 2 div neg 0 rm  col0 sh gr
/Times-Roman-iso ff 190.50 scf sf
6930 2975 m
gs 1 -1 sc (handler) dup sw pop 2 div neg 0 rm  col0 sh gr
/Times-Roman-iso ff 190.50 scf sf
6930 2800 m
gs 1 -1 sc (reporting) dup sw pop 2 div neg 0 rm  col0 sh gr
/Times-Roman-iso ff 190.50 scf sf
5130 2250 m
gs 1 -1 sc (msg1) dup sw pop 2 div neg 0 rm  col0 sh gr
/Times-Roman-iso ff 190.50 scf sf
5130 2610 m
gs 1 -1 sc (msg2) dup sw pop 2 div neg 0 rm  col0 sh gr
/Times-Roman-iso ff 190.50 scf sf
5130 2970 m
gs 1 -1 sc (msg3) dup sw pop 2 div neg 0 rm  col0 sh gr
/Times-Roman-iso ff 190.50 scf sf
5130 3330 m
gs 1 -1 sc (.) dup sw pop 2 div neg 0 rm  col0 sh gr
/Times-Roman-iso ff 190.50 scf sf
5130 3600 m
gs 1 -1 sc (.) dup sw pop 2 div neg 0 rm  col0 sh gr
/Times-Roman-iso ff 190.50 scf sf
5130 3870 m
gs 1 -1 sc (.) dup sw pop 2 div neg 0 rm  col0 sh gr
% Polyline
n 3433 1311 m 3529 1311 l 3529 1633 l 3433 1633 l
 cp gs col30 1.00 shd ef gr gs col0 s gr % Polyline
n 3594 1311 m 3626 1311 l 3626 1633 l 3594 1633 l
 cp gs col30 1.00 shd ef gr gs col0 s gr % Polyline
n 3369 1311 m 3369 1633 l 2758 1633 l 2758 1890 l 2340 1454 l 2758 1022 l
 2758 1311 l
 cp gs col30 1.00 shd ef gr gs col0 s gr /Times-Roman-iso ff 190.50 scf sf
2700 1530 m
gs 1 -1 sc (read) col0 sh gr
/Times-Roman-iso ff 190.50 scf sf
1657 1620 m
gs 1 -1 sc (thread) dup sw pop 2 div neg 0 rm  col0 sh gr
/Times-Roman-iso ff 190.50 scf sf
1657 1445 m
gs 1 -1 sc (tango pooling) dup sw pop 2 div neg 0 rm  col0 sh gr
/Times-Roman-iso ff 190.50 scf sf
2025 2630 m
gs 1 -1 sc (iecclient) dup sw pop 2 div neg 0 rm  col0 sh gr
/Times-Roman-iso ff 190.50 scf sf
2025 2455 m
gs 1 -1 sc (tango device) dup sw pop 2 div neg 0 rm  col0 sh gr
/Times-Roman-iso ff 190.50 scf sf
2115 3597 m
gs 1 -1 sc (logical node) dup sw pop 2 div neg 0 rm  col0 sh gr
/Times-Roman-iso ff 190.50 scf sf
2115 3422 m
gs 1 -1 sc (tango device) dup sw pop 2 div neg 0 rm  col0 sh gr
/Times-Roman-iso ff 190.50 scf sf
2610 5310 m
gs 1 -1 sc (tango) dup sw pop 2 div neg 0 rm  col0 sh gr
/Times-Roman-iso ff 190.50 scf sf
2610 5535 m
gs 1 -1 sc (clients) dup sw pop 2 div neg 0 rm  col0 sh gr
% here ends figure;
pagefooter
showpage
%%Trailer
%EOF
